{
    "openapi": "3.0.0",
    "info": {
        "title": "Include Blog API",
        "version": "1.0.0"
    },
    "paths": {
        "/insertcomment": {
            "post": {
                "summary": "Insert Comment",
                "description": "Inserts new blog post comment",
                "requestBody": {
                    "description": "Pass comment data",
                    "required": true,
                    "content": {
                        "application/json": {
                            "schema": {
                                "required": [
                                    "author_id",
                                    "post_id"
                                ],
                                "properties": {
                                    "author_id": {
                                        "type": "integer",
                                        "example": "1"
                                    },
                                    "post_id": {
                                        "type": "integer",
                                        "example": "1"
                                    },
                                    "content": {
                                        "type": "string",
                                        "example": "Content"
                                    }
                                },
                                "type": "object"
                            }
                        }
                    }
                },
                "responses": {
                    "200": {
                        "description": "Success",
                        "content": {
                            "application/json": {
                                "schema": {
                                    "properties": {
                                        "message": {
                                            "type": "string",
                                            "example": "Success"
                                        }
                                    },
                                    "type": "object"
                                }
                            }
                        }
                    }
                }
            }
        },
        "/insertpost": {
            "post": {
                "summary": "Insert Post",
                "description": "Inserts new blog post",
                "requestBody": {
                    "description": "Pass post data",
                    "required": true,
                    "content": {
                        "application/json": {
                            "schema": {
                                "required": [
                                    "author_id",
                                    "title",
                                    "content"
                                ],
                                "properties": {
                                    "author_id": {
                                        "type": "integer",
                                        "example": "1"
                                    },
                                    "title": {
                                        "type": "string",
                                        "example": "Title"
                                    },
                                    "content": {
                                        "type": "string",
                                        "example": "Content"
                                    }
                                },
                                "type": "object"
                            }
                        }
                    }
                },
                "responses": {
                    "200": {
                        "description": "Success",
                        "content": {
                            "application/json": {
                                "schema": {
                                    "properties": {
                                        "message": {
                                            "type": "string",
                                            "example": "Success"
                                        }
                                    },
                                    "type": "object"
                                }
                            }
                        }
                    }
                }
            }
        }
    },
    "security": [
        []
    ]
}